tab:estruturaESW,Estrutura Curricular do curso de Engenharia de Software
0.95,X,p{5.3cm},p{3.8cm}
Núcleo,Fundamentação,Percentual da Carga Horária  
Disciplinas do Ciclo Básico (Tronco Comum),"SBC2005, SE2004 e Resolução CNE/CES Nº 11/2002",30% (72 créditos)  
Disciplinas Profissionalizantes,SBC2005 e SE2004,"25,84% (62 créditos)"
Disciplinas Optativas de Formação Complementar,Regimento Geral da UnB – 30% Módulo Livre/Optativas,30% (72 créditos)  
Disciplinas Integradoras e Multidisciplinares,Resolução CNE/CES Nº 11/2002,"8,33% (20 créditos)"  
Estágio Supervisionado,Resolução CNE/CES Nº 11/2002,"5,83% (210 horas)"
Total de créditos/horas,226 créditos (3.600 horas)  
