box:IdentCurso, Quadro Síntese de identificação do curso
r,r
Código SIGRA,1635
Opção,6360
Código E-MEC (ENADE),104772
Denominação, Engenharia de Software
Habilitação, Bacharelado
Nome/Sigla da IES:, UNIVERSIDADE DE BRASÍLIA (UnB) 
Campus: , 43952-Campus UnB - Gama 
Turno , Diurno
Modalidade , Presencial
No de vagas anual,10
Carga horária,10
Créditos,240
Créditos em disciplinas obrigatórias,10
Créditos em disciplinas optativas,10
Tempo mínimo de integralização,9 semestre
Tempo máximo de integralização,16 semestres
