tab:mencoes,Menções e Equivalências Numéricas
0.5,c,>{\centering\arraybackslash}X
Menções,Equivalências Numéricas  
SS,"9,0 a 10,0"
MS,"7,0 a 8,9"
MM,"5,0 a 6,9"
MI,"3,0 a 4,9"
II,"0,1 a 2,9"
SR,zero  
